Team 6 Project 2
…
# Deal with the variable "Country"
## Because the levels of the country are too many, we count the total number of customers from different countries and make those which have more than 5000 counts factorized directly. For those who have less than 5000 counts, we just categorize them to "other". 
group_by(hoteldata, country) %>% summarize(n_country = n()) %>% arrange(desc(n_country))%>% print()

## # A tibble: 178 x 2
##    country n_country
##    <chr>       <int>
##  1 PRT         48590
##  2 GBR         12129
##  3 FRA         10415
##  4 ESP          8568
##  5 DEU          7287
##  6 ITA          3766
##  7 IRL          3375
##  8 BEL          2342
##  9 BRA          2224
## 10 NLD          2104
## # ... with 168 more rows
…
